Evolution of Top Names
…
5. Identify Top 10 Names

# Calculate total births for each name across all decades
top_names <- data_agg %>%
  group_by(preusuel) %>%
  summarise(total_all = sum(total)) %>%
  arrange(desc(total_all)) %>%
  slice_head(n = 50)

# Display top 10 names
head(top_names, 50)

## # A tibble: 50 × 2
##    preusuel total_all
##    <chr>        <dbl>
##  1 MARIE      2255641
##  2 JEAN       1911549
##  3 PIERRE      892291
##  4 MICHEL      818084
##  5 ANDRÉ       709736
##  6 JEANNE      560236
##  7 PHILIPPE    535415
##  8 LOUIS       530831
##  9 RENÉ        514538
## 10 ALAIN       504115
## # ℹ 40 more rows
…
